{
    "fluentMethods": true,
    "relationships": [],
    "fields": [
        {
            "fieldName": "code",
            "fieldType": "String",
            "fieldValidateRules": [
                "required"
            ]
        },
        {
            "fieldName": "nom",
            "fieldType": "String",
            "fieldValidateRules": [
                "required"
            ]
        },
        {
            "fieldName": "description",
            "fieldType": "String"
        }
    ],
    "changelogDate": "20170422204529",
    "entityTableName": "application",
    "dto": "no",
    "pagination": "pagination",
    "service": "serviceClass"
}
